counter_tb.vcd
$date
	Sun Mar 13 20:44:37 2022
$end
$version
	Icarus Verilog
$end
$timescale
	1ns
$end
$scope module counter_tb $end
$var wire 1 ! realClock $end
$var wire 9 " current [8:0] $end
$var reg 1 # clock $end
$var reg 9 $ inputValue [8:0] $end
$var reg 1 % reset $end
$var integer 32 & i [31:0] $end
$scope module CLK $end
$var reg 1 ! clock $end
$upscope $end
$scope module UTT $end
$var wire 1 # clock $end
$var wire 9 ' inputValue [8:0] $end
$var wire 1 % reset $end
$var reg 9 ( current [8:0] $end
$var reg 9 ) reg_inputValue [8:0] $end
$upscope $end
$upscope $end
$enddefinitions $end
#0
$dumpvars
b0 )
b0 (
b11111111 '
bx &
1%
b11111111 $
1#
b0 "
1!
$end
#10
0%
0#
0!
#20
b11111111 )
b11111111 &
1#
1!
#30
0#
0!
#40
b11111110 )
b11111110 "
b11111110 (
1#
1!
b11111110 &
#50
0#
0!
#60
b11111101 )
b11111101 "
b11111101 (
1#
1!
b11111101 &
#70
0#
0!
#80
b11111100 )
b11111100 "
b11111100 (
1#
1!
b11111100 &
#90
0#
0!
#100
b11111011 )
b11111011 "
b11111011 (
1#
1!
b11111011 &
#110
0#
0!
#120
b11111010 )
b11111010 "
b11111010 (
1#
1!
b11111010 &
#130
0#
0!
#140
b11111001 )
b11111001 "
b11111001 (
1#
1!
b11111001 &
#150
0#
0!
#160
b11111000 )
b11111000 "
b11111000 (
1#
1!
b11111000 &
#170
0#
0!
#180
b11110111 )
b11110111 "
b11110111 (
1#
1!
b11110111 &
#190
0#
0!
#200
b11110110 )
b11110110 "
b11110110 (
1#
1!
b11110110 &
#210
0#
0!
#220
b11110101 )
b11110101 "
b11110101 (
1#
1!
b11110101 &
#230
0#
0!
#240
b11110100 )
b11110100 "
b11110100 (
1#
1!
b11110100 &
#250
0#
0!
#260
b11110011 )
b11110011 "
b11110011 (
1#
1!
b11110011 &
#270
0#
0!
#280
b11110010 )
b11110010 "
b11110010 (
1#
1!
b11110010 &
#290
0#
0!
#300
b11110001 )
b11110001 "
b11110001 (
1#
1!
b11110001 &
#310
0#
0!
#320
b11110000 )
b11110000 "
b11110000 (
1#
1!
b11110000 &
#330
0#
0!
#340
b11101111 )
b11101111 "
b11101111 (
1#
1!
b11101111 &
#350
0#
0!
#360
b11101110 )
b11101110 "
b11101110 (
1#
1!
b11101110 &
#370
0#
0!
#380
b11101101 )
b11101101 "
b11101101 (
1#
1!
b11101101 &
#390
0#
0!
#400
b11101100 )
b11101100 "
b11101100 (
1#
1!
b11101100 &
#410
0#
0!
#420
b11101011 )
b11101011 "
b11101011 (
1#
1!
b11101011 &
#430
0#
0!
#440
b11101010 )
b11101010 "
b11101010 (
1#
1!
b11101010 &
#450
0#
0!
#460
b11101001 )
b11101001 "
b11101001 (
1#
1!
b11101001 &
#470
0#
0!
#480
b11101000 )
b11101000 "
b11101000 (
1#
1!
b11101000 &
#490
0#
0!
#500
b11100111 )
b11100111 "
b11100111 (
1#
1!
b11100111 &
#510
0#
0!
#520
b11100110 )
b11100110 "
b11100110 (
1#
1!
b11100110 &
#530
0#
0!
#540
b11100101 )
b11100101 "
b11100101 (
1#
1!
b11100101 &
#550
0#
0!
#560
b11100100 )
b11100100 "
b11100100 (
1#
1!
b11100100 &
#570
0#
0!
#580
b11100011 )
b11100011 "
b11100011 (
1#
1!
b11100011 &
#590
0#
0!
#600
b11100010 )
b11100010 "
b11100010 (
1#
1!
b11100010 &
#610
0#
0!
#620
b11100001 )
b11100001 "
b11100001 (
1#
1!
b11100001 &
#630
0#
0!
#640
b11100000 )
b11100000 "
b11100000 (
1#
1!
b11100000 &
#650
0#
0!
#660
b11011111 )
b11011111 "
b11011111 (
1#
1!
b11011111 &
#670
0#
0!
#680
b11011110 )
b11011110 "
b11011110 (
1#
1!
b11011110 &
#690
0#
0!
#700
b11011101 )
b11011101 "
b11011101 (
1#
1!
b11011101 &
#710
0#
0!
#720
b11011100 )
b11011100 "
b11011100 (
1#
1!
b11011100 &
#730
0#
0!
#740
b11011011 )
b11011011 "
b11011011 (
1#
1!
b11011011 &
#750
0#
0!
#760
b11011010 )
b11011010 "
b11011010 (
1#
1!
b11011010 &
#770
0#
0!
#780
b11011001 )
b11011001 "
b11011001 (
1#
1!
b11011001 &
#790
0#
0!
#800
b11011000 )
b11011000 "
b11011000 (
1#
1!
b11011000 &
#810
0#
0!
#820
b11010111 )
b11010111 "
b11010111 (
1#
1!
b11010111 &
#830
0#
0!
#840
b11010110 )
b11010110 "
b11010110 (
1#
1!
b11010110 &
#850
0#
0!
#860
b11010101 )
b11010101 "
b11010101 (
1#
1!
b11010101 &
#870
0#
0!
#880
b11010100 )
b11010100 "
b11010100 (
1#
1!
b11010100 &
#890
0#
0!
#900
b11010011 )
b11010011 "
b11010011 (
1#
1!
b11010011 &
#910
0#
0!
#920
b11010010 )
b11010010 "
b11010010 (
1#
1!
b11010010 &
#930
0#
0!
#940
b11010001 )
b11010001 "
b11010001 (
1#
1!
b11010001 &
#950
0#
0!
#960
b11010000 )
b11010000 "
b11010000 (
1#
1!
b11010000 &
#970
0#
0!
#980
b11001111 )
b11001111 "
b11001111 (
1#
1!
b11001111 &
#990
0#
0!
#1000
b11001110 )
b11001110 "
b11001110 (
1#
1!
b11001110 &
#1010
0#
0!
#1020
b11001101 )
b11001101 "
b11001101 (
1#
1!
b11001101 &
#1030
0#
0!
#1040
b11001100 )
b11001100 "
b11001100 (
1#
1!
b11001100 &
#1050
0#
0!
#1060
b11001011 )
b11001011 "
b11001011 (
1#
1!
b11001011 &
#1070
0#
0!
#1080
b11001010 )
b11001010 "
b11001010 (
1#
1!
b11001010 &
#1090
0#
0!
#1100
b11001001 )
b11001001 "
b11001001 (
1#
1!
b11001001 &
#1110
0#
0!
#1120
b11001000 )
b11001000 "
b11001000 (
1#
1!
b11001000 &
#1130
0#
0!
#1140
b11000111 )
b11000111 "
b11000111 (
1#
1!
b11000111 &
#1150
0#
0!
#1160
b11000110 )
b11000110 "
b11000110 (
1#
1!
b11000110 &
#1170
0#
0!
#1180
b11000101 )
b11000101 "
b11000101 (
1#
1!
b11000101 &
#1190
0#
0!
#1200
b11000100 )
b11000100 "
b11000100 (
1#
1!
b11000100 &
#1210
0#
0!
#1220
b11000011 )
b11000011 "
b11000011 (
1#
1!
b11000011 &
#1230
0#
0!
#1240
b11000010 )
b11000010 "
b11000010 (
1#
1!
b11000010 &
#1250
0#
0!
#1260
b11000001 )
b11000001 "
b11000001 (
1#
1!
b11000001 &
#1270
0#
0!
#1280
b11000000 )
b11000000 "
b11000000 (
1#
1!
b11000000 &
#1290
0#
0!
#1300
b10111111 )
b10111111 "
b10111111 (
1#
1!
b10111111 &
#1310
0#
0!
#1320
b10111110 )
b10111110 "
b10111110 (
1#
1!
b10111110 &
#1330
0#
0!
#1340
b10111101 )
b10111101 "
b10111101 (
1#
1!
b10111101 &
#1350
0#
0!
#1360
b10111100 )
b10111100 "
b10111100 (
1#
1!
b10111100 &
#1370
0#
0!
#1380
b10111011 )
b10111011 "
b10111011 (
1#
1!
b10111011 &
#1390
0#
0!
#1400
b10111010 )
b10111010 "
b10111010 (
1#
1!
b10111010 &
#1410
0#
0!
#1420
b10111001 )
b10111001 "
b10111001 (
1#
1!
b10111001 &
#1430
0#
0!
#1440
b10111000 )
b10111000 "
b10111000 (
1#
1!
b10111000 &
#1450
0#
0!
#1460
b10110111 )
b10110111 "
b10110111 (
1#
1!
b10110111 &
#1470
0#
0!
#1480
b10110110 )
b10110110 "
b10110110 (
1#
1!
b10110110 &
#1490
0#
0!
#1500
b10110101 )
b10110101 "
b10110101 (
1#
1!
b10110101 &
#1510
0#
0!
#1520
b10110100 )
b10110100 "
b10110100 (
1#
1!
b10110100 &
#1530
0#
0!
#1540
b10110011 )
b10110011 "
b10110011 (
1#
1!
b10110011 &
#1550
0#
0!
#1560
b10110010 )
b10110010 "
b10110010 (
1#
1!
b10110010 &
#1570
0#
0!
#1580
b10110001 )
b10110001 "
b10110001 (
1#
1!
b10110001 &
#1590
0#
0!
#1600
b10110000 )
b10110000 "
b10110000 (
1#
1!
b10110000 &
#1610
0#
0!
#1620
b10101111 )
b10101111 "
b10101111 (
1#
1!
b10101111 &
#1630
0#
0!
#1640
b10101110 )
b10101110 "
b10101110 (
1#
1!
b10101110 &
#1650
0#
0!
#1660
b10101101 )
b10101101 "
b10101101 (
1#
1!
b10101101 &
#1670
0#
0!
#1680
b10101100 )
b10101100 "
b10101100 (
1#
1!
b10101100 &
#1690
0#
0!
#1700
b10101011 )
b10101011 "
b10101011 (
1#
1!
b10101011 &
#1710
0#
0!
#1720
b10101010 )
b10101010 "
b10101010 (
1#
1!
b10101010 &
#1730
0#
0!
#1740
b10101001 )
b10101001 "
b10101001 (
1#
1!
b10101001 &
#1750
0#
0!
#1760
b10101000 )
b10101000 "
b10101000 (
1#
1!
b10101000 &
#1770
0#
0!
#1780
b10100111 )
b10100111 "
b10100111 (
1#
1!
b10100111 &
#1790
0#
0!
#1800
b10100110 )
b10100110 "
b10100110 (
1#
1!
b10100110 &
#1810
0#
0!
#1820
b10100101 )
b10100101 "
b10100101 (
1#
1!
b10100101 &
#1830
0#
0!
#1840
b10100100 )
b10100100 "
b10100100 (
1#
1!
b10100100 &
#1850
0#
0!
#1860
b10100011 )
b10100011 "
b10100011 (
1#
1!
b10100011 &
#1870
0#
0!
#1880
b10100010 )
b10100010 "
b10100010 (
1#
1!
b10100010 &
#1890
0#
0!
#1900
b10100001 )
b10100001 "
b10100001 (
1#
1!
b10100001 &
#1910
0#
0!
#1920
b10100000 )
b10100000 "
b10100000 (
1#
1!
b10100000 &
#1930
0#
0!
#1940
b10011111 )
b10011111 "
b10011111 (
1#
1!
b10011111 &
#1950
0#
0!
#1960
b10011110 )
b10011110 "
b10011110 (
1#
1!
b10011110 &
#1970
0#
0!
#1980
b10011101 )
b10011101 "
b10011101 (
1#
1!
b10011101 &
#1990
0#
0!
#2000
b10011100 )
b10011100 "
b10011100 (
1#
1!
b10011100 &
#2010
0#
0!
#2020
b10011011 )
b10011011 "
b10011011 (
1#
1!
b10011011 &
#2030
0#
0!
#2040
b10011010 )
b10011010 "
b10011010 (
1#
1!
b10011010 &
#2050
0#
0!
#2060
b10011001 )
b10011001 "
b10011001 (
1#
1!
b10011001 &
#2070
0#
0!
#2080
b10011000 )
b10011000 "
b10011000 (
1#
1!
b10011000 &
#2090
0#
0!
#2100
b10010111 )
b10010111 "
b10010111 (
1#
1!
b10010111 &
#2110
0#
0!
#2120
b10010110 )
b10010110 "
b10010110 (
1#
1!
b10010110 &
#2130
0#
0!
#2140
b10010101 )
b10010101 "
b10010101 (
1#
1!
b10010101 &
#2150
0#
0!
#2160
b10010100 )
b10010100 "
b10010100 (
1#
1!
b10010100 &
#2170
0#
0!
#2180
b10010011 )
b10010011 "
b10010011 (
1#
1!
b10010011 &
#2190
0#
0!
#2200
b10010010 )
b10010010 "
b10010010 (
1#
1!
b10010010 &
#2210
0#
0!
#2220
b10010001 )
b10010001 "
b10010001 (
1#
1!
b10010001 &
#2230
0#
0!
#2240
b10010000 )
b10010000 "
b10010000 (
1#
1!
b10010000 &
#2250
0#
0!
#2260
b10001111 )
b10001111 "
b10001111 (
1#
1!
b10001111 &
#2270
0#
0!
#2280
b10001110 )
b10001110 "
b10001110 (
1#
1!
b10001110 &
#2290
0#
0!
#2300
b10001101 )
b10001101 "
b10001101 (
1#
1!
b10001101 &
#2310
0#
0!
#2320
b10001100 )
b10001100 "
b10001100 (
1#
1!
b10001100 &
#2330
0#
0!
#2340
b10001011 )
b10001011 "
b10001011 (
1#
1!
b10001011 &
#2350
0#
0!
#2360
b10001010 )
b10001010 "
b10001010 (
1#
1!
b10001010 &
#2370
0#
0!
#2380
b10001001 )
b10001001 "
b10001001 (
1#
1!
b10001001 &
#2390
0#
0!
#2400
b10001000 )
b10001000 "
b10001000 (
1#
1!
b10001000 &
#2410
0#
0!
#2420
b10000111 )
b10000111 "
b10000111 (
1#
1!
b10000111 &
#2430
0#
0!
#2440
b10000110 )
b10000110 "
b10000110 (
1#
1!
b10000110 &
#2450
0#
0!
#2460
b10000101 )
b10000101 "
b10000101 (
1#
1!
b10000101 &
#2470
0#
0!
#2480
b10000100 )
b10000100 "
b10000100 (
1#
1!
b10000100 &
#2490
0#
0!
#2500
b10000011 )
b10000011 "
b10000011 (
1#
1!
b10000011 &
#2510
0#
0!
#2520
b10000010 )
b10000010 "
b10000010 (
1#
1!
b10000010 &
#2530
0#
0!
#2540
b10000001 )
b10000001 "
b10000001 (
1#
1!
b10000001 &
#2550
0#
0!
#2560
b10000000 )
b10000000 "
b10000000 (
1#
1!
b10000000 &
#2570
0#
0!
#2580
b1111111 )
b1111111 "
b1111111 (
1#
1!
b1111111 &
#2590
0#
0!
#2600
b1111110 )
b1111110 "
b1111110 (
1#
1!
b1111110 &
#2610
0#
0!
#2620
b1111101 )
b1111101 "
b1111101 (
1#
1!
b1111101 &
#2630
0#
0!
#2640
b1111100 )
b1111100 "
b1111100 (
1#
1!
b1111100 &
#2650
0#
0!
#2660
b1111011 )
b1111011 "
b1111011 (
1#
1!
b1111011 &
#2670
0#
0!
#2680
b1111010 )
b1111010 "
b1111010 (
1#
1!
b1111010 &
#2690
0#
0!
#2700
b1111001 )
b1111001 "
b1111001 (
1#
1!
b1111001 &
#2710
0#
0!
#2720
b1111000 )
b1111000 "
b1111000 (
1#
1!
b1111000 &
#2730
0#
0!
#2740
b1110111 )
b1110111 "
b1110111 (
1#
1!
b1110111 &
#2750
0#
0!
#2760
b1110110 )
b1110110 "
b1110110 (
1#
1!
b1110110 &
#2770
0#
0!
#2780
b1110101 )
b1110101 "
b1110101 (
1#
1!
b1110101 &
#2790
0#
0!
#2800
b1110100 )
b1110100 "
b1110100 (
1#
1!
b1110100 &
#2810
0#
0!
#2820
b1110011 )
b1110011 "
b1110011 (
1#
1!
b1110011 &
#2830
0#
0!
#2840
b1110010 )
b1110010 "
b1110010 (
1#
1!
b1110010 &
#2850
0#
0!
#2860
b1110001 )
b1110001 "
b1110001 (
1#
1!
b1110001 &
#2870
0#
0!
#2880
b1110000 )
b1110000 "
b1110000 (
1#
1!
b1110000 &
#2890
0#
0!
#2900
b1101111 )
b1101111 "
b1101111 (
1#
1!
b1101111 &
#2910
0#
0!
#2920
b1101110 )
b1101110 "
b1101110 (
1#
1!
b1101110 &
#2930
0#
0!
#2940
b1101101 )
b1101101 "
b1101101 (
1#
1!
b1101101 &
#2950
0#
0!
#2960
b1101100 )
b1101100 "
b1101100 (
1#
1!
b1101100 &
#2970
0#
0!
#2980
b1101011 )
b1101011 "
b1101011 (
1#
1!
b1101011 &
#2990
0#
0!
#3000
b1101010 )
b1101010 "
b1101010 (
1#
1!
b1101010 &
#3010
0#
0!
#3020
b1101001 )
b1101001 "
b1101001 (
1#
1!
b1101001 &
#3030
0#
0!
#3040
b1101000 )
b1101000 "
b1101000 (
1#
1!
b1101000 &
#3050
0#
0!
#3060
b1100111 )
b1100111 "
b1100111 (
1#
1!
b1100111 &
#3070
0#
0!
#3080
b1100110 )
b1100110 "
b1100110 (
1#
1!
b1100110 &
#3090
0#
0!
#3100
b1100101 )
b1100101 "
b1100101 (
1#
1!
b1100101 &
#3110
0#
0!
#3120
b1100100 )
b1100100 "
b1100100 (
1#
1!
b1100100 &
#3130
0#
0!
#3140
b1100011 )
b1100011 "
b1100011 (
1#
1!
b1100011 &
#3150
0#
0!
#3160
b1100010 )
b1100010 "
b1100010 (
1#
1!
b1100010 &
#3170
0#
0!
#3180
b1100001 )
b1100001 "
b1100001 (
1#
1!
b1100001 &
#3190
0#
0!
#3200
b1100000 )
b1100000 "
b1100000 (
1#
1!
b1100000 &
#3210
0#
0!
#3220
b1011111 )
b1011111 "
b1011111 (
1#
1!
b1011111 &
#3230
0#
0!
#3240
b1011110 )
b1011110 "
b1011110 (
1#
1!
b1011110 &
#3250
0#
0!
#3260
b1011101 )
b1011101 "
b1011101 (
1#
1!
b1011101 &
#3270
0#
0!
#3280
b1011100 )
b1011100 "
b1011100 (
1#
1!
b1011100 &
#3290
0#
0!
#3300
b1011011 )
b1011011 "
b1011011 (
1#
1!
b1011011 &
#3310
0#
0!
#3320
b1011010 )
b1011010 "
b1011010 (
1#
1!
b1011010 &
#3330
0#
0!
#3340
b1011001 )
b1011001 "
b1011001 (
1#
1!
b1011001 &
#3350
0#
0!
#3360
b1011000 )
b1011000 "
b1011000 (
1#
1!
b1011000 &
#3370
0#
0!
#3380
b1010111 )
b1010111 "
b1010111 (
1#
1!
b1010111 &
#3390
0#
0!
#3400
b1010110 )
b1010110 "
b1010110 (
1#
1!
b1010110 &
#3410
0#
0!
#3420
b1010101 )
b1010101 "
b1010101 (
1#
1!
b1010101 &
#3430
0#
0!
#3440
b1010100 )
b1010100 "
b1010100 (
1#
1!
b1010100 &
#3450
0#
0!
#3460
b1010011 )
b1010011 "
b1010011 (
1#
1!
b1010011 &
#3470
0#
0!
#3480
b1010010 )
b1010010 "
b1010010 (
1#
1!
b1010010 &
#3490
0#
0!
#3500
b1010001 )
b1010001 "
b1010001 (
1#
1!
b1010001 &
#3510
0#
0!
#3520
b1010000 )
b1010000 "
b1010000 (
1#
1!
b1010000 &
#3530
0#
0!
#3540
b1001111 )
b1001111 "
b1001111 (
1#
1!
b1001111 &
#3550
0#
0!
#3560
b1001110 )
b1001110 "
b1001110 (
1#
1!
b1001110 &
#3570
0#
0!
#3580
b1001101 )
b1001101 "
b1001101 (
1#
1!
b1001101 &
#3590
0#
0!
#3600
b1001100 )
b1001100 "
b1001100 (
1#
1!
b1001100 &
#3610
0#
0!
#3620
b1001011 )
b1001011 "
b1001011 (
1#
1!
b1001011 &
#3630
0#
0!
#3640
b1001010 )
b1001010 "
b1001010 (
1#
1!
b1001010 &
#3650
0#
0!
#3660
b1001001 )
b1001001 "
b1001001 (
1#
1!
b1001001 &
#3670
0#
0!
#3680
b1001000 )
b1001000 "
b1001000 (
1#
1!
b1001000 &
#3690
0#
0!
#3700
b1000111 )
b1000111 "
b1000111 (
1#
1!
b1000111 &
#3710
0#
0!
#3720
b1000110 )
b1000110 "
b1000110 (
1#
1!
b1000110 &
#3730
0#
0!
#3740
b1000101 )
b1000101 "
b1000101 (
1#
1!
b1000101 &
#3750
0#
0!
#3760
b1000100 )
b1000100 "
b1000100 (
1#
1!
b1000100 &
#3770
0#
0!
#3780
b1000011 )
b1000011 "
b1000011 (
1#
1!
b1000011 &
#3790
0#
0!
#3800
b1000010 )
b1000010 "
b1000010 (
1#
1!
b1000010 &
#3810
0#
0!
#3820
b1000001 )
b1000001 "
b1000001 (
1#
1!
b1000001 &
#3830
0#
0!
#3840
b1000000 )
b1000000 "
b1000000 (
1#
1!
b1000000 &
#3850
0#
0!
#3860
b111111 )
b111111 "
b111111 (
1#
1!
b111111 &
#3870
0#
0!
#3880
b111110 )
b111110 "
b111110 (
1#
1!
b111110 &
#3890
0#
0!
#3900
b111101 )
b111101 "
b111101 (
1#
1!
b111101 &
#3910
0#
0!
#3920
b111100 )
b111100 "
b111100 (
1#
1!
b111100 &
#3930
0#
0!
#3940
b111011 )
b111011 "
b111011 (
1#
1!
b111011 &
#3950
0#
0!
#3960
b111010 )
b111010 "
b111010 (
1#
1!
b111010 &
#3970
0#
0!
#3980
b111001 )
b111001 "
b111001 (
1#
1!
b111001 &
#3990
0#
0!
#4000
b111000 )
b111000 "
b111000 (
1#
1!
b111000 &
#4010
0#
0!
#4020
b110111 )
b110111 "
b110111 (
1#
1!
b110111 &
#4030
0#
0!
#4040
b110110 )
b110110 "
b110110 (
1#
1!
b110110 &
#4050
0#
0!
#4060
b110101 )
b110101 "
b110101 (
1#
1!
b110101 &
#4070
0#
0!
#4080
b110100 )
b110100 "
b110100 (
1#
1!
b110100 &
#4090
0#
0!
#4100
b110011 )
b110011 "
b110011 (
1#
1!
b110011 &
#4110
0#
0!
#4120
b110010 )
b110010 "
b110010 (
1#
1!
b110010 &
#4130
0#
0!
#4140
b110001 )
b110001 "
b110001 (
1#
1!
b110001 &
#4150
0#
0!
#4160
b110000 )
b110000 "
b110000 (
1#
1!
b110000 &
#4170
0#
0!
#4180
b101111 )
b101111 "
b101111 (
1#
1!
b101111 &
#4190
0#
0!
#4200
b101110 )
b101110 "
b101110 (
1#
1!
b101110 &
#4210
0#
0!
#4220
b101101 )
b101101 "
b101101 (
1#
1!
b101101 &
#4230
0#
0!
#4240
b101100 )
b101100 "
b101100 (
1#
1!
b101100 &
#4250
0#
0!
#4260
b101011 )
b101011 "
b101011 (
1#
1!
b101011 &
#4270
0#
0!
#4280
b101010 )
b101010 "
b101010 (
1#
1!
b101010 &
#4290
0#
0!
#4300
b101001 )
b101001 "
b101001 (
1#
1!
b101001 &
#4310
0#
0!
#4320
b101000 )
b101000 "
b101000 (
1#
1!
b101000 &
#4330
0#
0!
#4340
b100111 )
b100111 "
b100111 (
1#
1!
b100111 &
#4350
0#
0!
#4360
b100110 )
b100110 "
b100110 (
1#
1!
b100110 &
#4370
0#
0!
#4380
b100101 )
b100101 "
b100101 (
1#
1!
b100101 &
#4390
0#
0!
#4400
b100100 )
b100100 "
b100100 (
1#
1!
b100100 &
#4410
0#
0!
#4420
b100011 )
b100011 "
b100011 (
1#
1!
b100011 &
#4430
0#
0!
#4440
b100010 )
b100010 "
b100010 (
1#
1!
b100010 &
#4450
0#
0!
#4460
b100001 )
b100001 "
b100001 (
1#
1!
b100001 &
#4470
0#
0!
#4480
b100000 )
b100000 "
b100000 (
1#
1!
b100000 &
#4490
0#
0!
#4500
b11111 )
b11111 "
b11111 (
1#
1!
b11111 &
#4510
0#
0!
#4520
b11110 )
b11110 "
b11110 (
1#
1!
b11110 &
#4530
0#
0!
#4540
b11101 )
b11101 "
b11101 (
1#
1!
b11101 &
#4550
0#
0!
#4560
b11100 )
b11100 "
b11100 (
1#
1!
b11100 &
#4570
0#
0!
#4580
b11011 )
b11011 "
b11011 (
1#
1!
b11011 &
#4590
0#
0!
#4600
b11010 )
b11010 "
b11010 (
1#
1!
b11010 &
#4610
0#
0!
#4620
b11001 )
b11001 "
b11001 (
1#
1!
b11001 &
#4630
0#
0!
#4640
b11000 )
b11000 "
b11000 (
1#
1!
b11000 &
#4650
0#
0!
#4660
b10111 )
b10111 "
b10111 (
1#
1!
b10111 &
#4670
0#
0!
#4680
b10110 )
b10110 "
b10110 (
1#
1!
b10110 &
#4690
0#
0!
#4700
b10101 )
b10101 "
b10101 (
1#
1!
b10101 &
#4710
0#
0!
#4720
b10100 )
b10100 "
b10100 (
1#
1!
b10100 &
#4730
0#
0!
#4740
b10011 )
b10011 "
b10011 (
1#
1!
b10011 &
#4750
0#
0!
#4760
b10010 )
b10010 "
b10010 (
1#
1!
b10010 &
#4770
0#
0!
#4780
b10001 )
b10001 "
b10001 (
1#
1!
b10001 &
#4790
0#
0!
#4800
b10000 )
b10000 "
b10000 (
1#
1!
b10000 &
#4810
0#
0!
#4820
b1111 )
b1111 "
b1111 (
1#
1!
b1111 &
#4830
0#
0!
#4840
b1110 )
b1110 "
b1110 (
1#
1!
b1110 &
#4850
0#
0!
#4860
b1101 )
b1101 "
b1101 (
1#
1!
b1101 &
#4870
0#
0!
#4880
b1100 )
b1100 "
b1100 (
1#
1!
b1100 &
#4890
0#
0!
#4900
b1011 )
b1011 "
b1011 (
1#
1!
b1011 &
#4910
0#
0!
#4920
b1010 )
b1010 "
b1010 (
1#
1!
b1010 &
#4930
0#
0!
#4940
b1001 )
b1001 "
b1001 (
1#
1!
b1001 &
#4950
0#
0!
#4960
b1000 )
b1000 "
b1000 (
1#
1!
b1000 &
#4970
0#
0!
#4980
b111 )
b111 "
b111 (
1#
1!
b111 &
#4990
0#
0!
#5000
b110 )
b110 "
b110 (
1#
1!
b110 &
#5010
0#
0!
#5020
b101 )
b101 "
b101 (
1#
1!
b101 &
#5030
0#
0!
#5040
b100 )
b100 "
b100 (
1#
1!
b100 &
#5050
0#
0!
#5060
b11 )
b11 "
b11 (
1#
1!
b11 &
#5070
0#
0!
#5080
b10 )
b10 "
b10 (
1#
1!
b10 &
#5090
0#
0!
#5100
b1 )
b1 "
b1 (
1#
1!
b1 &
